
./mavkit-client --protocol Prxxka7napSL6ohgaLRX7yDb83wwqNpuwLGFngZmnh5UghkUzTB --mode mockup --no-base-dir-warnings run script michelson_test_scripts/opcodes/xor.mv on storage None and input 'Right (Pair 0 0)' --level 1 --trace-stack
storage
  (Some (Right 0))
emitted operations
  
big_map diff
  
trace
  - location: 16 (just consumed gas: 10.744)
    [ (Pair (Right (Pair 0 0)) None) ]
  - location: 16 (just consumed gas: 0.010)
    [ (Right (Pair 0 0)) ]
  - location: 17 (just consumed gas: 0.010)
    [ (Pair 0 0) ]
  - location: 24 (just consumed gas: 0.010)
    [ 0
      0 ]
  - location: 25 (just consumed gas: 0.035)
    [ 0 ]
  - location: 26 (just consumed gas: 0.010)
    [ (Right 0) ]
  - location: 17 (just consumed gas: 0.025)
    [ (Right 0) ]
  - location: 28 (just consumed gas: 0.010)
    [ (Some (Right 0)) ]
  - location: 29 (just consumed gas: 0.010)
    [ {}
      (Some (Right 0)) ]
  - location: 31 (just consumed gas: 0.010)
    [ (Pair {} (Some (Right 0))) ]

