
./mavkit-client --protocol Prxxka7napSL6ohgaLRX7yDb83wwqNpuwLGFngZmnh5UghkUzTB --mode mockup --no-base-dir-warnings run script michelson_test_scripts/opcodes/big_map_mem_string.mv on storage '(Pair { Elt "bar" 4 ; Elt "foo" 11 } None)' and input '"baz"' --level 1 --trace-stack
storage
  (Pair 4 (Some False))
emitted operations
  
big_map diff
  New map(4) of type (big_map string nat)
  Set map(4)["bar"] to 4
  Set map(4)["foo"] to 11
trace
  - location: 12 (just consumed gas: 11.711)
    [ (Pair "baz" { Elt "bar" 4 ; Elt "foo" 11 } None) ]
  - location: 12 (just consumed gas: 0.010)
    [ "baz"
      (Pair { Elt "bar" 4 ; Elt "foo" 11 } None) ]
  - location: 13 (just consumed gas: 0.010)
    [ (Pair { Elt "bar" 4 ; Elt "foo" 11 } None) ]
  - location: 15 (just consumed gas: 0.010)
    [ { Elt "bar" 4 ; Elt "foo" 11 } ]
  - location: 16 (just consumed gas: 0.010)
    [ { Elt "bar" 4 ; Elt "foo" 11 }
      { Elt "bar" 4 ; Elt "foo" 11 } ]
  - location: 13 (just consumed gas: 0.035)
    [ "baz"
      { Elt "bar" 4 ; Elt "foo" 11 }
      { Elt "bar" 4 ; Elt "foo" 11 } ]
  - location: 17 (just consumed gas: 0.735)
    [ False
      { Elt "bar" 4 ; Elt "foo" 11 } ]
  - location: 18 (just consumed gas: 0.010)
    [ (Some False)
      { Elt "bar" 4 ; Elt "foo" 11 } ]
  - location: 19 (just consumed gas: 0.010)
    [ { Elt "bar" 4 ; Elt "foo" 11 }
      (Some False) ]
  - location: 20 (just consumed gas: 0.010)
    [ (Pair { Elt "bar" 4 ; Elt "foo" 11 } (Some False)) ]
  - location: 21 (just consumed gas: 0.010)
    [ {}
      (Pair { Elt "bar" 4 ; Elt "foo" 11 } (Some False)) ]
  - location: 23 (just consumed gas: 0.010)
    [ (Pair {} { Elt "bar" 4 ; Elt "foo" 11 } (Some False)) ]

