
./mavkit-client --protocol Prxxka7napSL6ohgaLRX7yDb83wwqNpuwLGFngZmnh5UghkUzTB --mode mockup --no-base-dir-warnings run script michelson_test_scripts/opcodes/slice.mv on storage 'Some "Foo"' and input 'Pair 10 5' --level 1 --trace-stack
storage
  None
emitted operations
  
big_map diff
  
trace
  - location: 10 (just consumed gas: 9.166)
    [ (Pair (Pair 10 5) (Some "Foo")) ]
  - location: 10 (just consumed gas: 0.010)
    [ (Pair 10 5)
      (Some "Foo") ]
  - location: 11 (just consumed gas: 0.010)
    [ (Some "Foo")
      (Pair 10 5) ]
  - location: 13 (just consumed gas: 0.010)
    [ "Foo"
      (Pair 10 5) ]
  - location: 19 (just consumed gas: 0.010)
    [ (Pair 10 5)
      "Foo" ]
  - location: 20 (just consumed gas: 0.010)
    [ 10
      5
      "Foo" ]
  - location: 21 (just consumed gas: 0.026)
    [ None ]
  - location: 13 (just consumed gas: 0.025)
    [ None ]
  - location: 22 (just consumed gas: 0.010)
    [ {}
      None ]
  - location: 24 (just consumed gas: 0.010)
    [ (Pair {} None) ]

