
./mavkit-client --protocol Prxxka7napSL6ohgaLRX7yDb83wwqNpuwLGFngZmnh5UghkUzTB --mode mockup --no-base-dir-warnings run script michelson_test_scripts/opcodes/ediv_mumav.mv on storage '(Left None)' and input '(Pair 10 (Right 10))' --level 1 --trace-stack
storage
  (Right (Some (Pair 1 0)))
emitted operations
  
big_map diff
  
trace
  - location: 19 (just consumed gas: 13.318)
    [ (Pair (Pair 10 (Right 10)) (Left None)) ]
  - location: 19 (just consumed gas: 0.010)
    [ (Pair 10 (Right 10)) ]
  - location: 20 (just consumed gas: 0.010)
    [ 10
      (Right 10) ]
  - location: 21 (just consumed gas: 0.010)
    [ (Right 10)
      10 ]
  - location: 22 (just consumed gas: 0.010)
    [ 10
      10 ]
  - location: 32 (just consumed gas: 0.010)
    [ 10
      10 ]
  - location: 33 (just consumed gas: 0.070)
    [ (Some (Pair 1 0)) ]
  - location: 34 (just consumed gas: 0.010)
    [ (Right (Some (Pair 1 0))) ]
  - location: 22 (just consumed gas: 0.025)
    [ (Right (Some (Pair 1 0))) ]
  - location: 39 (just consumed gas: 0.010)
    [ {}
      (Right (Some (Pair 1 0))) ]
  - location: 41 (just consumed gas: 0.010)
    [ (Pair {} (Right (Some (Pair 1 0)))) ]

