
./mavkit-client --protocol Prxxka7napSL6ohgaLRX7yDb83wwqNpuwLGFngZmnh5UghkUzTB --mode mockup --no-base-dir-warnings run script michelson_test_scripts/opcodes/big_map_mem_nat.mv on storage '(Pair { Elt 1 4 ; Elt 2 11 } None)' and input 1 --level 1 --trace-stack
storage
  (Pair 4 (Some True))
emitted operations
  
big_map diff
  New map(4) of type (big_map nat nat)
  Set map(4)[1] to 4
  Set map(4)[2] to 11
trace
  - location: 12 (just consumed gas: 11.552)
    [ (Pair 1 { Elt 1 4 ; Elt 2 11 } None) ]
  - location: 12 (just consumed gas: 0.010)
    [ 1
      (Pair { Elt 1 4 ; Elt 2 11 } None) ]
  - location: 13 (just consumed gas: 0.010)
    [ (Pair { Elt 1 4 ; Elt 2 11 } None) ]
  - location: 15 (just consumed gas: 0.010)
    [ { Elt 1 4 ; Elt 2 11 } ]
  - location: 16 (just consumed gas: 0.010)
    [ { Elt 1 4 ; Elt 2 11 }
      { Elt 1 4 ; Elt 2 11 } ]
  - location: 13 (just consumed gas: 0.035)
    [ 1
      { Elt 1 4 ; Elt 2 11 }
      { Elt 1 4 ; Elt 2 11 } ]
  - location: 17 (just consumed gas: 0.723)
    [ True
      { Elt 1 4 ; Elt 2 11 } ]
  - location: 18 (just consumed gas: 0.010)
    [ (Some True)
      { Elt 1 4 ; Elt 2 11 } ]
  - location: 19 (just consumed gas: 0.010)
    [ { Elt 1 4 ; Elt 2 11 }
      (Some True) ]
  - location: 20 (just consumed gas: 0.010)
    [ (Pair { Elt 1 4 ; Elt 2 11 } (Some True)) ]
  - location: 21 (just consumed gas: 0.010)
    [ {}
      (Pair { Elt 1 4 ; Elt 2 11 } (Some True)) ]
  - location: 23 (just consumed gas: 0.010)
    [ (Pair {} { Elt 1 4 ; Elt 2 11 } (Some True)) ]

