
./mavkit-client --protocol Prxxka7napSL6ohgaLRX7yDb83wwqNpuwLGFngZmnh5UghkUzTB --mode mockup --no-base-dir-warnings run script michelson_test_scripts/opcodes/and_logical_1.mv on storage False and input '(Pair False True)' --level 1 --trace-stack
storage
  False
emitted operations
  
big_map diff
  
trace
  - location: 9 (just consumed gas: 5.330)
    [ (Pair (Pair False True) False) ]
  - location: 9 (just consumed gas: 0.010)
    [ (Pair False True) ]
  - location: 10 (just consumed gas: 0.010)
    [ False
      True ]
  - location: 11 (just consumed gas: 0.010)
    [ False ]
  - location: 12 (just consumed gas: 0.010)
    [ {}
      False ]
  - location: 14 (just consumed gas: 0.010)
    [ (Pair {} False) ]

