
./mavkit-client --protocol Prxxka7napSL6ohgaLRX7yDb83wwqNpuwLGFngZmnh5UghkUzTB --mode mockup --no-base-dir-warnings run script michelson_test_scripts/opcodes/map_map.mv on storage '{ Elt "bar" 5 ; Elt "foo" 1 }' and input 15 --level 1 --trace-stack
storage
  { Elt "bar" 20 ; Elt "foo" 16 }
emitted operations
  
big_map diff
  
trace
  - location: 9 (just consumed gas: 9.673)
    [ (Pair 15 { Elt "bar" 5 ; Elt "foo" 1 }) ]
  - location: 9 (just consumed gas: 0.010)
    [ 15
      { Elt "bar" 5 ; Elt "foo" 1 } ]
  - location: 10 (just consumed gas: 0.010)
    [ { Elt "bar" 5 ; Elt "foo" 1 }
      15 ]
  - location: 11 (just consumed gas: 0.067)
    [ (Pair "bar" 5)
      15 ]
  - location: 13 (just consumed gas: 0.010)
    [ 5
      15 ]
  - location: 14 (just consumed gas: 0.010)
    [ 15 ]
  - location: 16 (just consumed gas: 0.010)
    [ 15
      15 ]
  - location: 14 (just consumed gas: 0.035)
    [ 5
      15
      15 ]
  - location: 17 (just consumed gas: 0.035)
    [ 20
      15 ]
  - location: 11 (just consumed gas: 0.150)
    [ (Pair "foo" 1)
      15 ]
  - location: 13 (just consumed gas: 0.010)
    [ 1
      15 ]
  - location: 14 (just consumed gas: 0.010)
    [ 15 ]
  - location: 16 (just consumed gas: 0.010)
    [ 15
      15 ]
  - location: 14 (just consumed gas: 0.035)
    [ 1
      15
      15 ]
  - location: 17 (just consumed gas: 0.035)
    [ 16
      15 ]
  - location: 11 (just consumed gas: 0.160)
    [ { Elt "bar" 20 ; Elt "foo" 16 }
      15 ]
  - location: 18 (just consumed gas: 0.010)
    [ 15 ]
  - location: 20 (just consumed gas: 0.010)
    [  ]
  - location: 18 (just consumed gas: 0.035)
    [ { Elt "bar" 20 ; Elt "foo" 16 } ]
  - location: 21 (just consumed gas: 0.010)
    [ {}
      { Elt "bar" 20 ; Elt "foo" 16 } ]
  - location: 23 (just consumed gas: 0.010)
    [ (Pair {} { Elt "bar" 20 ; Elt "foo" 16 }) ]

